{
    "version": 1,
    "formatters": {
        "default": {
            "format": "[%(asctime)s] %(module)s %(levelname)s: %(message)s"
        },
        "access": {
            "format": "[%(asctime)s] %(levelname)s: %(message)s"
        }
    },
    "handlers": {
        "console": {
            "level":"DEBUG",
            "class": "logging.StreamHandler",
            "stream": "ext://sys.stdout",
            "formatter": "default"
        },
        "file": {
            "level": "DEBUG",
            "class": "logging.handlers.RotatingFileHandler",
            "filename": "./instance/log/KellyEdSrv.log",
            "maxBytes": 10485760,
            "backupCount": 10,
            "formatter": "default",
            "encoding": "utf8"
        },
        "access": {
            "level": "INFO",
            "class": "logging.handlers.RotatingFileHandler",
            "filename": "./instance/log/KellyEdSrv.log",
            "maxBytes": 10485760,
            "backupCount": 10,
            "formatter": "access",
            "encoding": "utf8"
        }
    },
    "loggers": {
        "uvicorn.error": {
            "level": "DEBUG",
            "handlers": ["console", "access"]
        },
        "uvicorn.access": {
            "level": "INFO",
            "handlers": ["console", "access"]
        },
        "kellyed": {
            "level": "INFO",
            "handlers": ["console", "file"]
        }
    },
    "disable_existing_loggers": true
}